<svg xmlns="http://www.w3.org/2000/svg" width="20.064" height="20.064" viewBox="0 0 20.064 20.064">
  <defs>
    <style>
      .cls-1 {
        fill: #ff6e6e;
      }
    </style>
  </defs>
  <g id="Group_44" data-name="Group 44" transform="translate(-8.975 -8.975)">
    <g id="edit" transform="translate(8.975 8.975)">
      <g id="Group_40" data-name="Group 40">
        <g id="Group_39" data-name="Group 39">
          <path id="Path_16" data-name="Path 16" class="cls-1" d="M0,80.229v4.181H4.181L16.516,72.074l-4.181-4.181Z" transform="translate(0 -64.345)"/>
          <path id="Path_17" data-name="Path 17" class="cls-1" d="M264.887,2.929l-2.6-2.6a1.117,1.117,0,0,0-1.578,0l-2.04,2.04,4.181,4.181,2.04-2.04A1.117,1.117,0,0,0,264.887,2.929Z" transform="translate(-245.149)"/>
        </g>
      </g>
    </g>
  </g>
</svg>
